7 csvファイルの読み込み | index.split
…
出会う可能性が高い文字コードの違いには、大きくcp932（SHIFT-JIS）とUTF-8という形式があり、一般的に業務で読みこもうとするファイルは前者であることが多いことを知っておくと役に立ちます。

7.1.1 utf-8でエンコードされたcsvファイル

csvファイルを読みこむには、readrパッケージを使います。tidyverseを読み込んだら一緒に読み込まれます。

data > csvフォルダ（data/csv/で表現）に入っている「」を開きます。

read_csv()関数を使います。

ここでは、""の中でtabキーを押すと文字コードの関係でエラーが出るかもしれません。日本語ファイル名の場合は、直に張り付けた方が無難です。

 read_csv("data/csv/ペンギン（ひどい列名）ver_utf8.csv")

## # A tibble: 344 x 9
##   Sｐｅｃｉｅｓ `種　類` `※島の名前` `①クチバシ　長さ（ｍｍ）`~
##   <chr>         <chr>    <chr>                  <dbl>
## 1 Adelie        アデリー Torgersen               39.1
## 2 Adelie        アデリー Torgersen               39.5
## 3 Adelie        アデリー Torgersen               40.3
## 4 Adelie        アデリー Torgersen               NA  
## 5 Adelie        アデリー Torgersen               36.7
## # ... with 339 more rows, and 5 more variables:
## #   `②ｸﾁﾊﾞｼ＿大きさ（ｍｍ）` <dbl>, `翼：長さ(mm)` <dbl>,
## #   `■体重　単位はｇ` <dbl>, `<U+329B><U+329A>` <chr>,
## #   `２００７～２００９` <dbl>

7.1.2 【文字化けの例】SHIT-JISでエンコードされたcsvファイル

正確にはSHIT-JISの拡張版であるcp932

変数名も文字化けして読めなくなるので、clean_names()で読める形式に変換している

read_csv("data/csv/ペンギン（ひどい列名）ver_cp932.csv") %>% 
  clean_names(case = "old_janitor")

## # A tibble: 344 x 9
##   s_u_0082_u_0090~ x_u_008e_ed_u_0~ x_u_0081_u_00a6~
##   <chr>            <chr>            <chr>           
## 1 Adelie           "\x83A\x83f\x83~ Torgersen       
## 2 Adelie           "\x83A\x83f\x83~ Torgersen       
## 3 Adelie           "\x83A\x83f\x83~ Torgersen       
## 4 Adelie           "\x83A\x83f\x83~ Torgersen       
## 5 Adelie           "\x83A\x83f\x83~ Torgersen       
## # ... with 339 more rows, and 6 more variables:
## #   x_u_0087_u_0083_n_u_0083_u_0083_o_u_0083_v_u_0081_u_0092_u_00b7_u_0082_u_00b3_u_0081_i_u_0082_u_008d_u_0082_u_008d_u_0081_j <dbl>,
## #   x_u_0087_a_u_00b8_c1_ca_u_07bc_u_0081_q_u_0091_u_50ab_u_0082_u_00b3_u_0081_i_u_0082_u_008d_u_0082_u_008d_u_0081_j <dbl>,
## #   x_u_0097_u_0083_u_0081_f_u_0092_u_00b7_u_0082_u_00b3_mm <dbl>,
## #   x_u_0081_u_00a1_u_0091_u_030f_d_u_0081_u_0092_p_u_0088_u_0282_u_0342_u_0087 <dbl>,
## #   x <chr>,
## #   x_u_0082_q_u_0082_o_u_0082_o_u_0082_v_u_0081_u_0082_q_u_0082_o_u_0082_o_u_0082_x <dbl>

日本語の変数名と、2列目の日本語の値が文字化けします。

7.1.3 SHIT-JISでエンコードされたcsvファイル

これを読むためには，引数でSHIT-JISのファイルであることを指定する必要がある

正確にはSHIT-JISの拡張版であるcp932

read_csv("data/csv/ペンギン（ひどい列名）ver_cp932.csv"
         , locale = locale(encoding = "cp932"))

## # A tibble: 344 x 9
##   Sｐｅｃｉｅｓ `種　類` `※島の名前` `①クチバシ　長さ（ｍｍ）`~
##   <chr>         <chr>    <chr>                  <dbl>
## 1 Adelie        アデリー Torgersen               39.1
## 2 Adelie        アデリー Torgersen               39.5
## 3 Adelie        アデリー Torgersen               40.3
## 4 Adelie        アデリー Torgersen               NA  
## 5 Adelie        アデリー Torgersen               36.7
## # ... with 339 more rows, and 5 more variables:
## #   `②ｸﾁﾊﾞｼ＿大きさ（ｍｍ）` <dbl>, `翼：長さ(mm)` <dbl>,
## #   `■体重　単位はｇ` <dbl>, `??` <chr>,
## #   `２００７～２００９` <dbl>
…
