2 一つのexcelファイルを読み込む | Rで読むExcelファイル（仮）
…
dataフォルダ（data/で表現）に入っている「ペンギン.xlsx」を開きます。

read_xlsx()関数を使います。したがって、以下すべてファイル形式は.xlsxを想定します。

read_xls()やread_excel()もあるので、用途によって使い分けられます。ファイル形式が混ざっている時はread_excel()が有用かもしれません。

library(readxl)

df <- 
 read_xlsx("data/ペンギン.xlsx") # excelファイルの読み込み

df # データの表示 

## # A tibble: 344 x 9
##   species 種類  island bill_length_mm bill_depth_mm
##   <chr>   <chr> <chr>           <dbl>         <dbl>
## 1 Adelie  アデリー~ Torge~           39.1          18.7
## 2 Adelie  アデリー~ Torge~           39.5          17.4
## 3 Adelie  アデリー~ Torge~           40.3          18  
## 4 Adelie  アデリー~ Torge~           NA            NA  
## 5 Adelie  アデリー~ Torge~           36.7          19.3
## # ... with 339 more rows, and 4 more variables:
## #   flipper_length_mm <dbl>, body_mass_g <dbl>, sex <chr>,
## #   year <dbl>
…
2.1 最高な機能だよ！パスの自動補完

read_xlsx("")と打った後に、" "の中にカーソルを置いて、tabキーを押すと、プロジェクトの中身が一覧で表示されるので、選んでいくだけで目的のファイルがキーボードを打つことなしに選べます！

RStudioは" "と打てばどこでもこの補完が可能です

ただし、R version 4.0で文字コード関連の挙動が変わったみたいで、R 4.0.2ではエラーになりました…（未解決）

上の階層のフォルダに行きたいときは、" "の中に../と打てば可能です。その後にtabキーを押せば上の階層のフォルダが選べます。

2.2 列名（変数名）がひどい場合の読み込み

read_xlsx("data/ペンギン（ひどい列名）ver.xlsx")

## # A tibble: 344 x 9
##   Sｐｅｃｉｅｓ `種　類` `※島の名前` `①クチバシ　長さ（ｍｍ）`~
##   <chr>         <chr>    <chr>                  <dbl>
## 1 Adelie        アデリー Torgersen               39.1
## 2 Adelie        アデリー Torgersen               39.5
## 3 Adelie        アデリー Torgersen               40.3
## 4 Adelie        アデリー Torgersen               NA  
## 5 Adelie        アデリー Torgersen               36.7
## # ... with 339 more rows, and 5 more variables:
## #   `②ｸﾁﾊﾞｼ＿大きさ（ｍｍ）` <dbl>, `翼：長さ(mm)` <dbl>,
## #   `■体重　単位はｇ` <dbl>, `<U+329B><U+329A>` <chr>,
## #   `２００７～２００９` <dbl>
読めることは読めますが、今後のデータ処理を進めるうえで不安が残ります。

2.2.1 スペースや記号などを自動的に変換してくれる関数できれいに

janitorパッケージのclean_names()関数を使って、列名に入り込んでいるスペースや記号などを安全な記号に変換します。

なお、日本語の列名では、引数（ひきすう）にcase = "old_janitor"をつけないと読みにくい結果になります。

library(tidyverse)
library(janitor)

read_xlsx("data/ペンギン（ひどい列名）ver.xlsx") %>% 
  clean_names(case = "old_janitor")

## # A tibble: 344 x 9
##   sｐｅｃｉｅｓ 種_類 x_島の名前 x_クチバシ_長さ_ｍｍ~
##   <chr>         <chr> <chr>                 <dbl>
## 1 Adelie        アデリー~ Torgersen              39.1
## 2 Adelie        アデリー~ Torgersen              39.5
## 3 Adelie        アデリー~ Torgersen              40.3
## 4 Adelie        アデリー~ Torgersen              NA  
## 5 Adelie        アデリー~ Torgersen              36.7
## # ... with 339 more rows, and 5 more variables:
## #   x_ｸﾁﾊﾞｼ_大きさ_ｍｍ <dbl>, 翼_長さ_mm <dbl>,
## #   x_体重_単位はｇ <dbl>, x_u_329b_u_329a <chr>,
## #   ２００７_２００９ <dbl>
…
なお、ショートカットctrl + shit + M（MacだとCmd + Shift + M）で出せます。

2.2.2 全角←→半角を自動で

stringiパッケージのstri_trans_nfkc()関数を使って、変数名で全角-半角のばらつきを統一させます。

ここでは、変数名をリネームするのにdplyr 1.0.0で登場したrename_with()関数を使いました。すべての変数に対し、全角文字を含んでいたら半角に直すというコードになります。

library(stringi)
read_xlsx("data/ペンギン（ひどい列名）ver.xlsx") %>% 
  rename_with(~stri_trans_nfkc(.),
              everything())

## # A tibble: 344 x 9
##   Species `種 類` `※島の名前` `1クチバシ 長さ(mm)`~ `2クチバシ_大きさ(mm)`~
##   <chr>   <chr>   <chr>                  <dbl>            <dbl>
## 1 Adelie  アデリー~ Torgersen               39.1             18.7
## 2 Adelie  アデリー~ Torgersen               39.5             17.4
## 3 Adelie  アデリー~ Torgersen               40.3             18  
## 4 Adelie  アデリー~ Torgersen               NA               NA  
## 5 Adelie  アデリー~ Torgersen               36.7             19.3
## # ... with 339 more rows, and 4 more variables:
## #   `翼:長さ(mm)` <dbl>, `■体重 単位はg` <dbl>, 女男 <chr>,
## #   `2007~2009` <dbl>

2.2.3 上記の合わせ技

%>% でつなぎ合わせて1つの実行で合わせてしまうこともできます。

read_xlsx("data/ペンギン（ひどい列名）ver.xlsx") %>% 
  rename_with(~stri_trans_nfkc(.),
              everything()) %>% 
    clean_names(case = "old_janitor")

## # A tibble: 344 x 9
##   species 種_類 x_島の名前 x1クチバシ_長さ_mm~ x2クチバシ_大きさ_mm~
##   <chr>   <chr> <chr>                 <dbl>            <dbl>
## 1 Adelie  アデリー~ Torgersen              39.1             18.7
## 2 Adelie  アデリー~ Torgersen              39.5             17.4
## 3 Adelie  アデリー~ Torgersen              40.3             18  
## 4 Adelie  アデリー~ Torgersen              NA               NA  
## 5 Adelie  アデリー~ Torgersen              36.7             19.3
## # ... with 339 more rows, and 4 more variables:
## #   翼_長さ_mm <dbl>, x_体重_単位はg <dbl>, 女男 <chr>,
## #   x2007_2009 <dbl>

2.3 開始行を指定して読みこむ

理想的なデータは1行目に列名が入力されている形ですが、最初の数行が空だったり、文字の説明が入っていたりすることも多いです。そうした場合は、以下のような読み込み結果になります。

read_xlsx("data/ペンギン（3行空き）.xlsx")

## # A tibble: 346 x 9
##   ...1  ここに説明とか書いてあるファイ~ ...3  ...4  ...5  ...6  ...7  ...8 
##   <chr> <chr>            <chr> <chr> <chr> <chr> <chr> <chr>
## 1 <NA>  <NA>             <NA>  <NA>  <NA>  <NA>  <NA>  <NA> 
## 2 spec~ island           bill~ bill~ flip~ body~ sex   year 
## 3 Adel~ Torgersen        39.1  18.7  181   3750  male  2007 
## 4 Adel~ Torgersen        39.5  17.4  186   3800  fema~ 2007 
## 5 Adel~ Torgersen        40.3  18    195   3250  fema~ 2007 
## # ... with 341 more rows, and 1 more variable: ...9 <chr>

列名が、セルに内容が入っている行から始まり、他の列名が...1, ...3といったものになりました。

これを、指定した行から読み込むには、引数skip =にとばしたい行の数を指定します。

read_xlsx("data/ペンギン（3行空き）.xlsx", skip = 3)

## # A tibble: 344 x 9
##   species island bill_length_mm bill_depth_mm flipper_length_~
##   <chr>   <chr>           <dbl>         <dbl>            <dbl>
## 1 Adelie  Torge~           39.1          18.7              181
## 2 Adelie  Torge~           39.5          17.4              186
## 3 Adelie  Torge~           40.3          18                195
## 4 Adelie  Torge~           NA            NA                 NA
## 5 Adelie  Torge~           36.7          19.3              193
## # ... with 339 more rows, and 4 more variables:
## #   body_mass_g <dbl>, sex <chr>, year <dbl>, 種類 <chr>
…
