2 Excelファイルを読み込む | index.split
…
という表示が出ると思います。つまり、344行のデータと9列の変数が入っているデータということを示しています。

head(df)と打つことで、最初の6行分のデータが表示されます。

2.1.1 パスの自動補完

read_xlsx("")と打った後に、" "の中にカーソルを置いて、tabキーを打つと、プロジェクトの中身が一覧で表示されるので、選んでいくだけで目的のファイルがキーボードを打つことなしに選べます！

上の階層のフォルダに行きたいときは、../と打てば可能です

2.1.2 列名がひどい場合の読み込み

read_xlsx("data/ペンギン（ひどい列名）ver.xlsx")

## # A tibble: 344 x 9
##    Sｐｅｃｉｅｓ `種　類` `※島の名前` `①クチバシ　長さ（ｍｍ）`~ `②ｸﾁﾊﾞｼ＿大きさ（ｍｍ）~
##    <chr>         <chr>    <chr>                  <dbl>            <dbl>
##  1 Adelie        アデリー Torgersen               39.1             18.7
##  2 Adelie        アデリー Torgersen               39.5             17.4
##  3 Adelie        アデリー Torgersen               40.3             18  
##  4 Adelie        アデリー Torgersen               NA               NA  
##  5 Adelie        アデリー Torgersen               36.7             19.3
##  6 Adelie        アデリー Torgersen               39.3             20.6
##  7 Adelie        アデリー Torgersen               38.9             17.8
##  8 Adelie        アデリー Torgersen               39.2             19.6
##  9 Adelie        アデリー Torgersen               34.1             18.1
## 10 Adelie        アデリー Torgersen               42               20.2
## # ... with 334 more rows, and 4 more variables: `翼：長さ(mm)` <dbl>,
## #   `■体重　単位はｇ` <dbl>, `<U+329B><U+329A>` <chr>, `２００７～２００９` <dbl>
…
library(janitor)

## Warning: package 'janitor' was built under R version 3.6.3

## 
## Attaching package: 'janitor'

## The following objects are masked from 'package:stats':
## 
##     chisq.test, fisher.test

read_xlsx("data/ペンギン（ひどい列名）ver.xlsx") %>% 
  clean_names(case = "old_janitor")

## # A tibble: 344 x 9
##    sｐｅｃｉｅｓ 種_類 x_島の名前 x_クチバシ_長さ_ｍｍ~ x_ｸﾁﾊﾞｼ_大きさ_ｍｍ~ 翼_長さ_mm
##    <chr>         <chr> <chr>                 <dbl>            <dbl>      <dbl>
##  1 Adelie        アデリー~ Torgersen              39.1             18.7        181
##  2 Adelie        アデリー~ Torgersen              39.5             17.4        186
##  3 Adelie        アデリー~ Torgersen              40.3             18          195
##  4 Adelie        アデリー~ Torgersen              NA               NA           NA
##  5 Adelie        アデリー~ Torgersen              36.7             19.3        193
##  6 Adelie        アデリー~ Torgersen              39.3             20.6        190
##  7 Adelie        アデリー~ Torgersen              38.9             17.8        181
##  8 Adelie        アデリー~ Torgersen              39.2             19.6        195
##  9 Adelie        アデリー~ Torgersen              34.1             18.1        193
## 10 Adelie        アデリー~ Torgersen              42               20.2        190
## # ... with 334 more rows, and 3 more variables: x_体重_単位はｇ <dbl>,
## #   x_u_329b_u_329a <chr>, ２００７_２００９ <dbl>

janitorパッケージ

2.1.2.1.1 %>% とは？

2.1.2.2 半角←→全角を自動で

library(stringi)
read_xlsx("data/ペンギン（ひどい列名）ver.xlsx") %>% 
  rename_with(~stri_trans_nfkc(.),
              everything())

## # A tibble: 344 x 9
##    Species `種 類` `※島の名前` `1クチバシ 長さ(mm)`~ `2クチバシ_大きさ(mm)`~ `翼:長さ(mm)`
##    <chr>   <chr>   <chr>                  <dbl>            <dbl>         <dbl>
##  1 Adelie  アデリー~ Torgersen               39.1             18.7           181
##  2 Adelie  アデリー~ Torgersen               39.5             17.4           186
##  3 Adelie  アデリー~ Torgersen               40.3             18             195
##  4 Adelie  アデリー~ Torgersen               NA               NA              NA
##  5 Adelie  アデリー~ Torgersen               36.7             19.3           193
##  6 Adelie  アデリー~ Torgersen               39.3             20.6           190
##  7 Adelie  アデリー~ Torgersen               38.9             17.8           181
##  8 Adelie  アデリー~ Torgersen               39.2             19.6           195
##  9 Adelie  アデリー~ Torgersen               34.1             18.1           193
## 10 Adelie  アデリー~ Torgersen               42               20.2           190
## # ... with 334 more rows, and 3 more variables: `■体重 単位はg` <dbl>,
## #   女男 <chr>, `2007~2009` <dbl>

2.1.2.3 上記の合わせ技

read_xlsx("data/ペンギン（ひどい列名）ver.xlsx") %>% 
  rename_with(~stri_trans_nfkc(.),
              everything()) %>% 
    clean_names(case = "old_janitor")

## # A tibble: 344 x 9
##    species 種_類 x_島の名前 x1クチバシ_長さ_mm~ x2クチバシ_大きさ_mm~ 翼_長さ_mm
##    <chr>   <chr> <chr>                 <dbl>            <dbl>      <dbl>
##  1 Adelie  アデリー~ Torgersen              39.1             18.7        181
##  2 Adelie  アデリー~ Torgersen              39.5             17.4        186
##  3 Adelie  アデリー~ Torgersen              40.3             18          195
##  4 Adelie  アデリー~ Torgersen              NA               NA           NA
##  5 Adelie  アデリー~ Torgersen              36.7             19.3        193
##  6 Adelie  アデリー~ Torgersen              39.3             20.6        190
##  7 Adelie  アデリー~ Torgersen              38.9             17.8        181
##  8 Adelie  アデリー~ Torgersen              39.2             19.6        195
##  9 Adelie  アデリー~ Torgersen              34.1             18.1        193
## 10 Adelie  アデリー~ Torgersen              42               20.2        190
## # ... with 334 more rows, and 3 more variables: x_体重_単位はg <dbl>,
## #   女男 <chr>, x2007_2009 <dbl>
2.2 シートを指定して読みこむ

2.2.1 シート名の確認

readxlのexcel_sheets()関数でシート名の一覧を取得できます。

excel_sheets("data/ペンギン（シート別）.xlsx")

## [1] "アデリー"   "ジェンツー" "ヒゲ"

2.2.2 普通の読み込み

read_xlsx("data/ペンギン（シート別）.xlsx")

## # A tibble: 152 x 9
##    species 種類  island bill_length_mm bill_depth_mm flipper_length_~
##    <chr>   <chr> <chr>           <dbl>         <dbl>            <dbl>
##  1 Adelie  アデリー~ Torge~           39.1          18.7              181
##  2 Adelie  アデリー~ Torge~           39.5          17.4              186
##  3 Adelie  アデリー~ Torge~           40.3          18                195
##  4 Adelie  アデリー~ Torge~           NA            NA                 NA
##  5 Adelie  アデリー~ Torge~           36.7          19.3              193
##  6 Adelie  アデリー~ Torge~           39.3          20.6              190
##  7 Adelie  アデリー~ Torge~           38.9          17.8              181
##  8 Adelie  アデリー~ Torge~           39.2          19.6              195
##  9 Adelie  アデリー~ Torge~           34.1          18.1              193
## 10 Adelie  アデリー~ Torge~           42            20.2              190
## # ... with 142 more rows, and 3 more variables: body_mass_g <dbl>, sex <chr>,
## #   year <dbl>

デフォルトでは一番最初のシートのデータが読みこまれます。ここでは、シート「アデリー」が読み込まれました。

2.2.3 シートを指定した読み込み

read_excel("data/ペンギン（シート別）.xlsx", sheet = "ジェンツー" )

## # A tibble: 124 x 9
##    species 種類  island bill_length_mm bill_depth_mm flipper_length_~
##    <chr>   <chr> <chr>           <dbl>         <dbl>            <dbl>
##  1 Gentoo  ジェンツ~ Biscoe           46.1          13.2              211
##  2 Gentoo  ジェンツ~ Biscoe           50            16.3              230
##  3 Gentoo  ジェンツ~ Biscoe           48.7          14.1              210
##  4 Gentoo  ジェンツ~ Biscoe           50            15.2              218
##  5 Gentoo  ジェンツ~ Biscoe           47.6          14.5              215
##  6 Gentoo  ジェンツ~ Biscoe           46.5          13.5              210
##  7 Gentoo  ジェンツ~ Biscoe           45.4          14.6              211
##  8 Gentoo  ジェンツ~ Biscoe           46.7          15.3              219
##  9 Gentoo  ジェンツ~ Biscoe           43.3          13.4              209
## 10 Gentoo  ジェンツ~ Biscoe           46.8          15.4              215
## # ... with 114 more rows, and 3 more variables: body_mass_g <dbl>, sex <chr>,
## #   year <dbl>
…
それぞれのexcelシートから読みこまれた3つのデータ（アデリー、ジェンツー、ヒゲ）はデータフレームとして、df_allにリストとしてまとめて格納されています。リストは最初は理解が難しいですが、慣れるとなんでもリストにしたくなるくらい便利なものです。個別に取り出してみてみましょう

df_all$ジェンツー

## # A tibble: 124 x 9
##    species 種類  island bill_length_mm bill_depth_mm flipper_length_~
##    <chr>   <chr> <chr>           <dbl>         <dbl>            <dbl>
##  1 Gentoo  ジェンツ~ Biscoe           46.1          13.2              211
##  2 Gentoo  ジェンツ~ Biscoe           50            16.3              230
##  3 Gentoo  ジェンツ~ Biscoe           48.7          14.1              210
##  4 Gentoo  ジェンツ~ Biscoe           50            15.2              218
##  5 Gentoo  ジェンツ~ Biscoe           47.6          14.5              215
##  6 Gentoo  ジェンツ~ Biscoe           46.5          13.5              210
##  7 Gentoo  ジェンツ~ Biscoe           45.4          14.6              211
##  8 Gentoo  ジェンツ~ Biscoe           46.7          15.3              219
##  9 Gentoo  ジェンツ~ Biscoe           43.3          13.4              209
## 10 Gentoo  ジェンツ~ Biscoe           46.8          15.4              215
## # ... with 114 more rows, and 3 more variables: body_mass_g <dbl>, sex <chr>,
## #   year <dbl>
…
