2 Excelファイルの読み込み | index.split
…
2.1.1 ファイルの準備と読み込み

ExcelファイルをRに読み込むには、readxlパッケージが便利です。6セクション1.2で述べた通り、ここからは、githubレポジトリのhttps://github.com/izunyan/excel_r をダウンロードしてプロジェクトを開いて進めてみてください。dataフォルダ（data/で表現）に入っている「ペンギン.xlsx」7を読み込んでみましょう。

読み込みにはread_xlsx()関数を使います。したがって、以下すべてExcelファイル形式は.xlsxを想定します。read_xls()やread_excel()という関数もあるので、ファイル形式によって使い分けられます。ファイル形式が混ざっている時はread_excel()が有用かもしれません。

library(readxl)

df <- 
 read_xlsx("data/ペンギン.xlsx") # Excelファイルの読み込み

df # データの表示 

## # A tibble: 344 x 9
##   species 種類  island bill_length_mm bill_depth_mm
##   <chr>   <chr> <chr>           <dbl>         <dbl>
## 1 Adelie  アデリー~ Torge~           39.1          18.7
## 2 Adelie  アデリー~ Torge~           39.5          17.4
## 3 Adelie  アデリー~ Torge~           40.3          18  
## # ... with 341 more rows, and 4 more variables:
## #   flipper_length_mm <dbl>, body_mass_g <dbl>, sex <chr>,
## #   year <dbl>
…
という表示が出ると思います。つまり、344行のデータと9列の変数が入っているデータを、dfという名前のもの（オブジェクト）としてRに読みこんだ、ということを示しています。df <-の部分がその作業に該当します。<-の右側の内容を左側のオブジェクトに格納するという意味です。ここで読み込まれた形がデータフレーム（はじめに>本書の構成の注参照）です。

オブジェクト名であるdfと打つことで、デフォルトでは最初の10行分のデータが表示されます。ここでは紙面の都合で設定を変えているので3行だけにしています。表示された最初の行にも、A tibble: 344 x 9と、行数x列数の情報が出ています。表示しきれなかった行は、with 341 more rowsと省略され、表示しきれなかった列は、flipper_length_mm <dbl>, body_mass_g <dbl>, sex <chr>, year <dbl>と、名前<データの型名>が表示されます。なお、読みこんだファイルの保存については3.1章で解説します。

2.1.1.1 最高な機能だよ！パスの自動補完

read_xlsx("")と打った後に、" "の中にカーソルを置いて、tabキーを押すと、プロジェクトの中身が一覧で表示されるので、選んでいくだけで目的のファイルがキーボードを打つことなしに選べます！RStudioは" "と打てばどこでもこの補完が可能です。8

上の階層のフォルダに行きたいときは、" "の中に../と打てば可能です。その後にtabキーを押せば上の階層のフォルダが選べます。

2.1.2 列名（変数名）がひどい場合の読み込み

read_xlsx("data/ペンギン（ひどい列名）ver.xlsx")

## # A tibble: 344 x 9
##   Sｐｅｃｉｅｓ `種　類` `※島の名前` `①クチバシ　長さ（ｍｍ）`~
##   <chr>         <chr>    <chr>                  <dbl>
## 1 Adelie        アデリー Torgersen               39.1
## 2 Adelie        アデリー Torgersen               39.5
## 3 Adelie        アデリー Torgersen               40.3
## # ... with 341 more rows, and 5 more variables:
## #   `②ｸﾁﾊﾞｼ＿大きさ（ｍｍ）` <dbl>, `翼：長さ(mm)` <dbl>,
## #   `■体重　単位はｇ` <dbl>, `<U+329B><U+329A>` <chr>,
## #   `２００７～２００９` <dbl>
…
2.1.2.1 スペースや記号などを自動的に変換してくれる関数できれいに

janitorパッケージのclean_names()関数を使って、列名に入り込んでいるスペースや記号などを安全な記号に変換します。

なお、日本語の列名では、clean_names()関数にcase = "old_janitor"をつけないと読みにくい結果になります。このように、関数の中に追加する情報のことを引数（ひきすう）と言います。引数によってさまざまな条件を変更することが可能になります。

library(tidyverse)
    # ↑は普通まず最初に読み込むパッケージですが、本書ではここで初めて使います
library(janitor)

read_xlsx("data/ペンギン（ひどい列名）ver.xlsx") %>% 
  clean_names(case = "old_janitor")

## # A tibble: 344 x 9
##   sｐｅｃｉｅｓ 種_類 x_島の名前 x_クチバシ_長さ_ｍｍ~
##   <chr>         <chr> <chr>                 <dbl>
## 1 Adelie        アデリー~ Torgersen              39.1
## 2 Adelie        アデリー~ Torgersen              39.5
## 3 Adelie        アデリー~ Torgersen              40.3
## # ... with 341 more rows, and 5 more variables:
## #   x_ｸﾁﾊﾞｼ_大きさ_ｍｍ <dbl>, 翼_長さ_mm <dbl>,
## #   x_体重_単位はｇ <dbl>, x_u_329b_u_329a <chr>,
## #   ２００７_２００９ <dbl>
…
なお、ショートカットctrl + shit + M（MacだとCmd + Shift + M）で出せます。

2.1.2.3 全角←→半角を自動で

stringiパッケージのstri_trans_nfkc()関数を使って、変数名で全角-半角のばらつきを統一させます。

ここでは、変数名をリネームするのにdplyr 1.0.0で登場したrename_with()関数を使いました。everything()という引数を含めているので、すべての変数に対し、全角文字を含んでいたら半角に直すというコードになります。

library(stringi)
read_xlsx("data/ペンギン（ひどい列名）ver.xlsx") %>% 
  rename_with(~stri_trans_nfkc(.),
              everything())

## # A tibble: 344 x 9
##   Species `種 類` `※島の名前` `1クチバシ 長さ(mm)`~ `2クチバシ_大きさ(mm)`~
##   <chr>   <chr>   <chr>                  <dbl>            <dbl>
## 1 Adelie  アデリー~ Torgersen               39.1             18.7
## 2 Adelie  アデリー~ Torgersen               39.5             17.4
## 3 Adelie  アデリー~ Torgersen               40.3             18  
## # ... with 341 more rows, and 4 more variables:
## #   `翼:長さ(mm)` <dbl>, `■体重 単位はg` <dbl>, 女男 <chr>,
## #   `2007~2009` <dbl>

2.1.2.4 上記の合わせ技

%>% でつなぎ合わせて1つの実行で合わせてしまうこともできます。

read_xlsx("data/ペンギン（ひどい列名）ver.xlsx") %>% 
  rename_with(~stri_trans_nfkc(.),
              everything()) %>% 
    clean_names(case = "old_janitor")

## # A tibble: 344 x 9
##   species 種_類 x_島の名前 x1クチバシ_長さ_mm~ x2クチバシ_大きさ_mm~
##   <chr>   <chr> <chr>                 <dbl>            <dbl>
## 1 Adelie  アデリー~ Torgersen              39.1             18.7
## 2 Adelie  アデリー~ Torgersen              39.5             17.4
## 3 Adelie  アデリー~ Torgersen              40.3             18  
## # ... with 341 more rows, and 4 more variables:
## #   翼_長さ_mm <dbl>, x_体重_単位はg <dbl>, 女男 <chr>,
## #   x2007_2009 <dbl>

2.1.3 開始行を指定して読み込む

理想的なデータは1行目に列名が入力されている形ですが、最初の数行が空だったり、文字の説明が入っていたりすることも多いです。そうした場合は、以下のような読み込み結果になります。

read_xlsx("data/ペンギン（3行空き）.xlsx") %>% 
  select(1:3) # 紙面の都合のため最初の3列に制限

## # A tibble: 346 x 3
##   ...1    ここに説明とか書いてあるファイル読むのつらいのです~ ...3        
##   <chr>   <chr>                                      <chr>       
## 1 <NA>    <NA>                                       <NA>        
## 2 species island                                     bill_length~
## 3 Adelie  Torgersen                                  39.1        
## # ... with 343 more rows

列名が、セルに内容が入っている行から始まり、他の列名が...1, ...3といったものになりました。そしてデータがうまく読み込めていません。これを、指定した行から読み込むには、引数skip =にとばしたい行の数を指定します。

read_xlsx("data/ペンギン（3行空き）.xlsx", skip = 3)

## # A tibble: 344 x 9
##   species island bill_length_mm bill_depth_mm flipper_length_~
##   <chr>   <chr>           <dbl>         <dbl>            <dbl>
## 1 Adelie  Torge~           39.1          18.7              181
## 2 Adelie  Torge~           39.5          17.4              186
## 3 Adelie  Torge~           40.3          18                195
## # ... with 341 more rows, and 4 more variables:
## #   body_mass_g <dbl>, sex <chr>, year <dbl>, 種類 <chr>
…
2.2.1 シート名の確認

複雑なExcelファイルとなると、たくさんのシートが含まれていて、その全容を知るのも一苦労です。Rでは、readxlパッケージのexcel_sheets()関数でシート名の一覧を簡単に取得できます。

excel_sheets("data/ペンギン（シート別）.xlsx")

## [1] "アデリー"   "ジェンツー" "ヒゲ"

2.2.2 普通の読み込み

シートが分かれているExcelファイルをそのまま読みこんでみます。

read_xlsx("data/ペンギン（シート別）.xlsx")

## # A tibble: 152 x 9
##   species 種類  island bill_length_mm bill_depth_mm
##   <chr>   <chr> <chr>           <dbl>         <dbl>
## 1 Adelie  アデリー~ Torge~           39.1          18.7
## 2 Adelie  アデリー~ Torge~           39.5          17.4
## 3 Adelie  アデリー~ Torge~           40.3          18  
## # ... with 149 more rows, and 4 more variables:
## #   flipper_length_mm <dbl>, body_mass_g <dbl>, sex <chr>,
## #   year <dbl>

デフォルトでは一番最初のシートのデータが読みこまれます。ここでは、シート「アデリー」が読み込まれました。

2.2.3 シートを指定した読み込み

引数のsheet =にシート名を指定することで読み込めます。

read_excel("data/ペンギン（シート別）.xlsx", sheet = "ジェンツー" )

## # A tibble: 124 x 9
##   species 種類  island bill_length_mm bill_depth_mm
##   <chr>   <chr> <chr>           <dbl>         <dbl>
## 1 Gentoo  ジェンツ~ Biscoe           46.1          13.2
## 2 Gentoo  ジェンツ~ Biscoe           50            16.3
## 3 Gentoo  ジェンツ~ Biscoe           48.7          14.1
## # ... with 121 more rows, and 4 more variables:
## #   flipper_length_mm <dbl>, body_mass_g <dbl>, sex <chr>,
## #   year <dbl>
…
ここで一気にレベルが上がりますが、これこそがRを使ってExcelファイルを読み込む便利な部分（その用途に限らず、コード書いてコンピュータに働いてもらうの最高！ってなる部分）なので、その魅力をみていきましょう。

path_name <- "data/ペンギン（シート別）.xlsx" # データのパスを格納

# シート名を取得しそれぞれから読み込んでリストにまとめる
df_list <-
  excel_sheets(path_name) %>%                     
  set_names() %>%           # 名前付きベクトルにする
  map(read_excel, path =  path_name)

df_list # 作成したリストの表示

## $アデリー
## # A tibble: 152 x 9
##   species 種類  island bill_length_mm bill_depth_mm
##   <chr>   <chr> <chr>           <dbl>         <dbl>
## 1 Adelie  アデリー~ Torge~           39.1          18.7
## 2 Adelie  アデリー~ Torge~           39.5          17.4
## 3 Adelie  アデリー~ Torge~           40.3          18  
## # ... with 149 more rows, and 4 more variables:
## #   flipper_length_mm <dbl>, body_mass_g <dbl>, sex <chr>,
## #   year <dbl>
## 
## $ジェンツー
## # A tibble: 124 x 9
##   species 種類  island bill_length_mm bill_depth_mm
##   <chr>   <chr> <chr>           <dbl>         <dbl>
## 1 Gentoo  ジェンツ~ Biscoe           46.1          13.2
## 2 Gentoo  ジェンツ~ Biscoe           50            16.3
## 3 Gentoo  ジェンツ~ Biscoe           48.7          14.1
## # ... with 121 more rows, and 4 more variables:
## #   flipper_length_mm <dbl>, body_mass_g <dbl>, sex <chr>,
## #   year <dbl>
## 
## $ヒゲ
## # A tibble: 68 x 9
##   species 種類  island bill_length_mm bill_depth_mm
##   <chr>   <chr> <chr>           <dbl>         <dbl>
## 1 Chinst~ ヒゲ  Dream            46.5          17.9
## 2 Chinst~ ヒゲ  Dream            50            19.5
## 3 Chinst~ ヒゲ  Dream            51.3          19.2
## # ... with 65 more rows, and 4 more variables:
## #   flipper_length_mm <dbl>, body_mass_g <dbl>, sex <chr>,
## #   year <dbl>

それぞれのExcelシートから読みこまれた3つのデータ（アデリー、ジェンツー、ヒゲ）はデータフレームとして、df_listにリストと呼ばれる形式にてまとめて格納されています。リストは最初は理解が難しいですが、慣れるとなんでもリストにしたくなるくらい便利なものです。リストの中身を個別に取り出してみてみましょう。

df_list$ジェンツー

## # A tibble: 124 x 9
##   species 種類  island bill_length_mm bill_depth_mm
##   <chr>   <chr> <chr>           <dbl>         <dbl>
## 1 Gentoo  ジェンツ~ Biscoe           46.1          13.2
## 2 Gentoo  ジェンツ~ Biscoe           50            16.3
## 3 Gentoo  ジェンツ~ Biscoe           48.7          14.1
## # ... with 121 more rows, and 4 more variables:
## #   flipper_length_mm <dbl>, body_mass_g <dbl>, sex <chr>,
## #   year <dbl>
…
files

## [1] "data/複数/アデリー.xlsx"   "data/複数/ジェンツー.xlsx"
## [3] "data/複数/ヒゲ.xlsx"

2.3.2 ファイルを一括で読み込む

ldata <-
    map(files, ~read_xlsx(.))

ldata

## [[1]]
## # A tibble: 152 x 9
##   species 種類  island bill_length_mm bill_depth_mm
##   <chr>   <chr> <chr>           <dbl>         <dbl>
## 1 Adelie  アデリー~ Torge~           39.1          18.7
## 2 Adelie  アデリー~ Torge~           39.5          17.4
## 3 Adelie  アデリー~ Torge~           40.3          18  
## # ... with 149 more rows, and 4 more variables:
## #   flipper_length_mm <dbl>, body_mass_g <dbl>, sex <chr>,
## #   year <dbl>
## 
## [[2]]
## # A tibble: 124 x 9
##   species 種類  island bill_length_mm bill_depth_mm
##   <chr>   <chr> <chr>           <dbl>         <dbl>
## 1 Gentoo  ジェンツ~ Biscoe           46.1          13.2
## 2 Gentoo  ジェンツ~ Biscoe           50            16.3
## 3 Gentoo  ジェンツ~ Biscoe           48.7          14.1
## # ... with 121 more rows, and 4 more variables:
## #   flipper_length_mm <dbl>, body_mass_g <dbl>, sex <chr>,
## #   year <dbl>
## 
## [[3]]
## # A tibble: 68 x 9
##   species 種類  island bill_length_mm bill_depth_mm
##   <chr>   <chr> <chr>           <dbl>         <dbl>
## 1 Chinst~ ヒゲ  Dream            46.5          17.9
## 2 Chinst~ ヒゲ  Dream            50            19.5
## 3 Chinst~ ヒゲ  Dream            51.3          19.2
## # ... with 65 more rows, and 4 more variables:
## #   flipper_length_mm <dbl>, body_mass_g <dbl>, sex <chr>,
## #   year <dbl>
…
file_name

## [1] "アデリー"   "ジェンツー" "ヒゲ"

2.3.2.2 リストの要素名にファイル名を付与

2.2.4で使ったset_names()関数は、リストの要素名を付ける時にも使えます。リストldataの3つの要素に、file_nameの中身を割り当てます。

ldata <-
    set_names(ldata, file_name)

ldata

## $アデリー
## # A tibble: 152 x 9
##   species 種類  island bill_length_mm bill_depth_mm
##   <chr>   <chr> <chr>           <dbl>         <dbl>
## 1 Adelie  アデリー~ Torge~           39.1          18.7
## 2 Adelie  アデリー~ Torge~           39.5          17.4
## 3 Adelie  アデリー~ Torge~           40.3          18  
## # ... with 149 more rows, and 4 more variables:
## #   flipper_length_mm <dbl>, body_mass_g <dbl>, sex <chr>,
## #   year <dbl>
## 
## $ジェンツー
## # A tibble: 124 x 9
##   species 種類  island bill_length_mm bill_depth_mm
##   <chr>   <chr> <chr>           <dbl>         <dbl>
## 1 Gentoo  ジェンツ~ Biscoe           46.1          13.2
## 2 Gentoo  ジェンツ~ Biscoe           50            16.3
## 3 Gentoo  ジェンツ~ Biscoe           48.7          14.1
## # ... with 121 more rows, and 4 more variables:
## #   flipper_length_mm <dbl>, body_mass_g <dbl>, sex <chr>,
## #   year <dbl>
## 
## $ヒゲ
## # A tibble: 68 x 9
##   species 種類  island bill_length_mm bill_depth_mm
##   <chr>   <chr> <chr>           <dbl>         <dbl>
## 1 Chinst~ ヒゲ  Dream            46.5          17.9
## 2 Chinst~ ヒゲ  Dream            50            19.5
## 3 Chinst~ ヒゲ  Dream            51.3          19.2
## # ... with 65 more rows, and 4 more variables:
## #   flipper_length_mm <dbl>, body_mass_g <dbl>, sex <chr>,
## #   year <dbl>
…
