4 csvファイルの読み込みと保存 | Rで読むExcelファイル
…
Tools > Global Options > Code > Saving > Default text encoding:

Tools > Project Options > Code Editing > text encoding:

data > csvフォルダ（ここでは>は階層関係を示し、コードではdata/csv/で表現）に入っている「ペンギン（ひどい列名）ver_utf8.csv」を開きます。㊛㊚列のみ、環境依存文字のため、csvにする時点で文字化けています…

4.1.1 UTF-8でエンコードされたcsvファイル

df_csv <- 
 read_csv("data/csv/ペンギン（ひどい列名）ver_utf8.csv")

df_csv

## # A tibble: 344 × 9
##   Sｐｅｃｉｅｓ `種　類` `※島の名前` `①クチバシ　長さ（ｍｍ）`
##   <chr>         <chr>    <chr>                           <dbl>
## 1 Adelie        アデリー Torgersen                        39.1
## 2 Adelie        アデリー Torgersen                        39.5
## 3 Adelie        アデリー Torgersen                        40.3
## # … with 341 more rows, and 5 more variables:
## #   `②ｸﾁﾊﾞｼ＿大きさ（ｍｍ）` <dbl>, `翼：長さ(mm)` <dbl>,
## #   `■体重　単位はｇ` <dbl>, `㊛㊚` <chr>,
## #   `２００７～２００９` <dbl>
…
以下コードを実行するとエラーが出てきます。

read_csv("data/csv/ペンギン（ひどい列名）ver_cp932.csv")

Error in nchar(x, “width”) : invalid multibyte string, element 1

4.1.2.2 Shift-JISのcsvファイルの読み込み方

これを読むためには，引数locale = locale(encoding = )でShift-JISのファイルであることを指定する必要があります。

read_csv("data/csv/ペンギン（ひどい列名）ver_cp932.csv"
         , locale = locale(encoding = "cp932"))

## # A tibble: 344 × 9
##   Sｐｅｃｉｅｓ `種　類` `※島の名前` `①クチバシ　長さ（ｍｍ）`
##   <chr>         <chr>    <chr>                           <dbl>
## 1 Adelie        アデリー Torgersen                        39.1
## 2 Adelie        アデリー Torgersen                        39.5
## 3 Adelie        アデリー Torgersen                        40.3
## # … with 341 more rows, and 5 more variables:
## #   `②ｸﾁﾊﾞｼ＿大きさ（ｍｍ）` <dbl>, `翼：長さ(mm)` <dbl>,
## #   `■体重　単位はｇ` <dbl>, `??` <chr>,
## #   `２００７～２００９` <dbl>

4.1.3 read.csv()を使う場合

従来のcsvを読む関数read.csv()を使う場合も同様です。R-4.2からはデフォルトでUTF-8を読むようになったため，Shift-JISのファイルを読むためには引数で指定する必要があります。

read.csv("data/csv/ペンギン（ひどい列名）ver_cp932.csv", 
         fileEncoding = "cp932") |>
    as_tibble()  # データフレームをtibble型にし見やすい出力に

## # A tibble: 344 × 9
##   Sｐｅｃｉｅｓ 種.類    X.島の名前 X.クチバシ.長さ.ｍｍ.
##   <chr>         <chr>    <chr>                      <dbl>
## 1 Adelie        アデリー Torgersen                   39.1
## 2 Adelie        アデリー Torgersen                   39.5
## 3 Adelie        アデリー Torgersen                   40.3
## # … with 341 more rows, and 5 more variables:
## #   X.ｸﾁﾊﾞｼ.大きさ.ｍｍ. <dbl>, 翼.長さ.mm. <int>,
## #   X.体重.単位はｇ <int>, X.. <chr>, ２００７.２００９ <int>

UTF-8を読む場合はデフォルトで読めます。

read.csv("data/csv/ペンギン（ひどい列名）ver_utf8.csv") |> 
    as_tibble()

## # A tibble: 344 × 9
##   Sｐｅｃｉｅｓ 種.類    X.島の名前 X.クチバシ.長さ.ｍｍ.
##   <chr>         <chr>    <chr>                      <dbl>
## 1 Adelie        アデリー Torgersen                   39.1
## 2 Adelie        アデリー Torgersen                   39.5
## 3 Adelie        アデリー Torgersen                   40.3
## # … with 341 more rows, and 5 more variables:
## #   X.ｸﾁﾊﾞｼ.大きさ.ｍｍ. <dbl>, 翼.長さ.mm. <int>,
## #   X.体重.単位はｇ <int>, X.. <chr>, ２００７.２００９ <int>

4.1.4 大きいデータならfread()

これまで紹介したcsvファイルを読みこむための関数は、小規模なデータならそんなに時間はかかりませんが、データが数万行×数百列と大きくなってくると、時間がかかるようになります。

そこで大きく時間を短縮できるのが、data.tableパッケージのfread()関数です。

UTF-8を読む場合はデフォルトで読めます。data.frame形式にするには引数にdata.table = FALSEをつけます

data.table::fread("data/csv/ペンギン（ひどい列名）ver_utf8.csv",
                  data.table = FALSE) |> 
  as_tibble()

## # A tibble: 344 × 9
##   Sｐｅｃｉｅｓ `種　類` `※島の名前` `①クチバシ　長さ（ｍｍ）`
##   <chr>         <chr>    <chr>                           <dbl>
## 1 Adelie        アデリー Torgersen                        39.1
## 2 Adelie        アデリー Torgersen                        39.5
## 3 Adelie        アデリー Torgersen                        40.3
## # … with 341 more rows, and 5 more variables:
## #   `②ｸﾁﾊﾞｼ＿大きさ（ｍｍ）` <dbl>, `翼：長さ(mm)` <int>,
## #   `■体重　単位はｇ` <int>, `㊛㊚` <chr>,
## #   `２００７～２００９` <int>

R4.2からは，Shift-JISのファイルを読むと日本語が文字化けするようになってしまいました。現在の所，これは対処不可能みたいです。

4.1.5 大きいデータを読む場合のvroom

readrを速くしたようなパッケージにvroom[https://vroom.r-lib.org/]があります。しばらくは別々に開発が進むみたいですが，将来的に統合が考えられてるらしいです。shift-jisの大規模csvファイルを読む際のfreadに代わる選択肢として有望です

vroom::vroom("data/csv/ペンギン（ひどい列名）ver_utf8.csv")

## # A tibble: 344 × 9
##   Sｐｅｃｉｅｓ `種　類` `※島の名前` `①クチバシ　長さ（ｍｍ）`
##   <chr>         <chr>    <chr>                           <dbl>
## 1 Adelie        アデリー Torgersen                        39.1
## 2 Adelie        アデリー Torgersen                        39.5
## 3 Adelie        アデリー Torgersen                        40.3
## # … with 341 more rows, and 5 more variables:
## #   `②ｸﾁﾊﾞｼ＿大きさ（ｍｍ）` <dbl>, `翼：長さ(mm)` <dbl>,
## #   `■体重　単位はｇ` <dbl>, `㊛㊚` <chr>,
## #   `２００７～２００９` <dbl>

Shift-JISのファイルはreadrと同じように引数で指定します

vroom::vroom("data/csv/ペンギン（ひどい列名）ver_cp932.csv",
             locale = locale(encoding = "cp932"))

## # A tibble: 344 × 9
##   Sｐｅｃｉｅｓ `種　類` `※島の名前` `①クチバシ　長さ（ｍｍ）`
##   <chr>         <chr>    <chr>                           <dbl>
## 1 Adelie        アデリー Torgersen                        39.1
## 2 Adelie        アデリー Torgersen                        39.5
## 3 Adelie        アデリー Torgersen                        40.3
## # … with 341 more rows, and 5 more variables:
## #   `②ｸﾁﾊﾞｼ＿大きさ（ｍｍ）` <dbl>, `翼：長さ(mm)` <dbl>,
## #   `■体重　単位はｇ` <dbl>, `??` <chr>,
## #   `２００７～２００９` <dbl>
…
files

## [1] "data/複数/Adelie.csv"    "data/複数/Chinstrap.csv"
## [3] "data/複数/Gentoo.csv"

この3つのcsvファイルを一気に読み込んで縦につなげたいとします。

これは，read_csv()の第一引数にパス一覧オブジェクトを入れ，id =引数にファイル名の情報を示す列の名前（ここではfile_name）を決めるだけです。

`

read_csv(files, id = "file_name")

## # A tibble: 344 × 9
##   file_name           species island bill_length_mm bill_depth_mm
##   <chr>               <chr>   <chr>           <dbl>         <dbl>
## 1 data/複数/Adelie.c… Adelie  Torge…           39.1          18.7
## 2 data/複数/Adelie.c… Adelie  Torge…           39.5          17.4
## 3 data/複数/Adelie.c… Adelie  Torge…           40.3          18  
## # … with 341 more rows, and 4 more variables:
## #   flipper_length_mm <dbl>, body_mass_g <dbl>, sex <chr>,
## #   year <dbl>
…
