4 複数のexcelファイルを読み込む | Rで読むExcelファイル（仮）
…
file_name

## [1] "アデリー"   "ジェンツー" "ヒゲ"

4.2.2 リストの要素名にファイル名を付与

ldata <-
    set_names(ldata, file_name)

ldata

## $アデリー
## # A tibble: 152 x 9
##   species 種類  island bill_length_mm bill_depth_mm
##   <chr>   <chr> <chr>           <dbl>         <dbl>
## 1 Adelie  アデリー~ Torge~           39.1          18.7
## 2 Adelie  アデリー~ Torge~           39.5          17.4
## 3 Adelie  アデリー~ Torge~           40.3          18  
## 4 Adelie  アデリー~ Torge~           NA            NA  
## 5 Adelie  アデリー~ Torge~           36.7          19.3
## # ... with 147 more rows, and 4 more variables:
## #   flipper_length_mm <dbl>, body_mass_g <dbl>, sex <chr>,
## #   year <dbl>
## 
## $ジェンツー
## # A tibble: 124 x 9
##   species 種類  island bill_length_mm bill_depth_mm
##   <chr>   <chr> <chr>           <dbl>         <dbl>
## 1 Gentoo  ジェンツ~ Biscoe           46.1          13.2
## 2 Gentoo  ジェンツ~ Biscoe           50            16.3
## 3 Gentoo  ジェンツ~ Biscoe           48.7          14.1
## 4 Gentoo  ジェンツ~ Biscoe           50            15.2
## 5 Gentoo  ジェンツ~ Biscoe           47.6          14.5
## # ... with 119 more rows, and 4 more variables:
## #   flipper_length_mm <dbl>, body_mass_g <dbl>, sex <chr>,
## #   year <dbl>
## 
## $ヒゲ
## # A tibble: 68 x 9
##   species 種類  island bill_length_mm bill_depth_mm
##   <chr>   <chr> <chr>           <dbl>         <dbl>
## 1 Chinst~ ヒゲ  Dream            46.5          17.9
## 2 Chinst~ ヒゲ  Dream            50            19.5
## 3 Chinst~ ヒゲ  Dream            51.3          19.2
## 4 Chinst~ ヒゲ  Dream            45.4          18.7
## 5 Chinst~ ヒゲ  Dream            52.7          19.8
## # ... with 63 more rows, and 4 more variables:
## #   flipper_length_mm <dbl>, body_mass_g <dbl>, sex <chr>,
## #   year <dbl>
…
