2 一つのexcelファイルを読み込む | index.split
…
read_xlsx()関数を使います。したがって、以下すべてファイル形式は.xlsxを想定します。

read_xls()やread_excel()もあるので、用途によって使い分けられます。ファイル形式が混ざっている時はread_excel()が有用かもしれません。

library(readxl)

# excelファイルの読み込み
df <- 
 read_xlsx("data/ペンギン.xlsx")

# データの表示
df

## # A tibble: 344 x 9
##   species 種類  island bill_length_mm bill_depth_mm
##   <chr>   <chr> <chr>           <dbl>         <dbl>
## 1 Adelie  アデリー~ Torge~           39.1          18.7
## 2 Adelie  アデリー~ Torge~           39.5          17.4
## 3 Adelie  アデリー~ Torge~           40.3          18  
## 4 Adelie  アデリー~ Torge~           NA            NA  
## 5 Adelie  アデリー~ Torge~           36.7          19.3
## # ... with 339 more rows, and 4 more variables:
## #   flipper_length_mm <dbl>, body_mass_g <dbl>, sex <chr>,
## #   year <dbl>
…
dfと打つことで、デフォルトでは最初の10行分のデータが表示されます。ここでは紙面の都合で設定を変えているので5つだけにしています。表示された最初の行にも、A tibble: 344 x 9と、行数x列数の情報が出ています。表示しきれなかった行は、with 339 more rowsと省略され、表示しきれなかった列は、body_mass_g <dbl>, sex <chr>, year <dbl>と、名前と<型名>が表示されます。

2.1 最高な機能だよ！パスの自動補完

read_xlsx("")と打った後に、" "の中にカーソルを置いて、tabキーを押すと、プロジェクトの中身が一覧で表示されるので、選んでいくだけで目的のファイルがキーボードを打つことなしに選べます！

RStudioは" "と打てばどこでもこの補完が可能です

上の階層のフォルダに行きたいときは、" "の中に../と打てば可能です。その後にtabキーを押せば上の階層のフォルダが選べます。

2.2 列名がひどい場合の読み込み

read_xlsx("data/ペンギン（ひどい列名）ver.xlsx")

## # A tibble: 344 x 9
##   Sｐｅｃｉｅｓ `種　類` `※島の名前` `①クチバシ　長さ（ｍｍ）`~
##   <chr>         <chr>    <chr>                  <dbl>
## 1 Adelie        アデリー Torgersen               39.1
## 2 Adelie        アデリー Torgersen               39.5
## 3 Adelie        アデリー Torgersen               40.3
## 4 Adelie        アデリー Torgersen               NA  
## 5 Adelie        アデリー Torgersen               36.7
## # ... with 339 more rows, and 5 more variables:
## #   `②ｸﾁﾊﾞｼ＿大きさ（ｍｍ）` <dbl>, `翼：長さ(mm)` <dbl>,
## #   `■体重　単位はｇ` <dbl>, `<U+329B><U+329A>` <chr>,
## #   `２００７～２００９` <dbl>
読めることは読めますが、今後のデータ処理を進めるうえで不安が残ります。

2.2.1 スペースや記号などを自動的に変換してくれる関数できれいに

janitorパッケージのclean_names()関数を使って、列名に入り込んでいるスペースや記号などを安全な記号に変換します。

なお、日本語の列名では、引数にcase = "old_janitor"をつけないと読みにくい結果になります。

library(tidyverse)
library(janitor)

read_xlsx("data/ペンギン（ひどい列名）ver.xlsx") %>% 
  clean_names(case = "old_janitor")

## # A tibble: 344 x 9
##   sｐｅｃｉｅｓ 種_類 x_島の名前 x_クチバシ_長さ_ｍｍ~
##   <chr>         <chr> <chr>                 <dbl>
## 1 Adelie        アデリー~ Torgersen              39.1
## 2 Adelie        アデリー~ Torgersen              39.5
## 3 Adelie        アデリー~ Torgersen              40.3
## 4 Adelie        アデリー~ Torgersen              NA  
## 5 Adelie        アデリー~ Torgersen              36.7
## # ... with 339 more rows, and 5 more variables:
## #   x_ｸﾁﾊﾞｼ_大きさ_ｍｍ <dbl>, 翼_長さ_mm <dbl>,
## #   x_体重_単位はｇ <dbl>, x_u_329b_u_329a <chr>,
## #   ２００７_２００９ <dbl>
…
なお、ショートカットctrl + shit + Mで出せます。
（Macだと ⇧⌘Mらしい）

2.2.2 全角←→半角を自動で

stringiパッケージのstri_trans_nfkc()関数を使って、変数名で全角-半角のばらつきを統一させます。

ここでは、変数名をリネームするのにrename_with()関数を使いました。すべての変数に対し、全角文字を含んでいたら半角に直すというコードになります。

library(stringi)
read_xlsx("data/ペンギン（ひどい列名）ver.xlsx") %>% 
  rename_with(~stri_trans_nfkc(.),
              everything())

## # A tibble: 344 x 9
##   Species `種 類` `※島の名前` `1クチバシ 長さ(mm)`~
##   <chr>   <chr>   <chr>                  <dbl>
## 1 Adelie  アデリー~ Torgersen               39.1
## 2 Adelie  アデリー~ Torgersen               39.5
## 3 Adelie  アデリー~ Torgersen               40.3
## 4 Adelie  アデリー~ Torgersen               NA  
## 5 Adelie  アデリー~ Torgersen               36.7
## # ... with 339 more rows, and 5 more variables:
## #   `2クチバシ_大きさ(mm)` <dbl>, `翼:長さ(mm)` <dbl>,
## #   `■体重 単位はg` <dbl>, 女男 <chr>, `2007~2009` <dbl>

2.2.3 上記の合わせ技

%>% でつなぎ合わせて1つの実行で合わせてしまうこともできます。

read_xlsx("data/ペンギン（ひどい列名）ver.xlsx") %>% 
  rename_with(~stri_trans_nfkc(.),
              everything()) %>% 
    clean_names(case = "old_janitor")

## # A tibble: 344 x 9
##   species 種_類 x_島の名前 x1クチバシ_長さ_mm~ x2クチバシ_大きさ_mm~
##   <chr>   <chr> <chr>                 <dbl>            <dbl>
## 1 Adelie  アデリー~ Torgersen              39.1             18.7
## 2 Adelie  アデリー~ Torgersen              39.5             17.4
## 3 Adelie  アデリー~ Torgersen              40.3             18  
## 4 Adelie  アデリー~ Torgersen              NA               NA  
## 5 Adelie  アデリー~ Torgersen              36.7             19.3
## # ... with 339 more rows, and 4 more variables:
## #   翼_長さ_mm <dbl>, x_体重_単位はg <dbl>, 女男 <chr>,
## #   x2007_2009 <dbl>
